{
    "dataPath": "${env:AppData}/FoundryVTT/",
    "repository": "",
    "rawUrl": "https://gitlab.com/woodentavern/foundryvtt-bar-brawl/-/raw",
    "apiUrl": "https://gitlab.com/api/v4/projects/22486994"
}